…
-----

## Question 1: What specialties do we have?

We can use `count()` from `dplyr` to figure out how many different
catagories do we have? Are these catagories related? overlapping? evenly
distributed?

``` r
mt_samples %>%
  count(medical_specialty, sort = TRUE)
```

    ## # A tibble: 40 x 2
    ##    medical_specialty                 n
    ##    <chr>                         <int>
    ##  1 Surgery                        1103
    ##  2 Consult - History and Phy.      516
    ##  3 Cardiovascular / Pulmonary      372
    ##  4 Orthopedic                      355
    ##  5 Radiology                       273
    ##  6 General Medicine                259
    ##  7 Gastroenterology                230
    ##  8 Neurology                       223
    ##  9 SOAP / Chart / Progress Notes   166
    ## 10 Obstetrics / Gynecology         160
    ## # ... with 30 more rows
…
``` r
mt_bi = mt_samples %>%
  unnest_ngrams(output=token, input=transcription, n=2) %>%
  
  separate(token, into =c("word1","word2"),sep=" " ) %>%
  select(word1, word2)

mt_bi %>%
  filter(word1=="patient") %>%
  count(word2, sort = T)
```

    ## # A tibble: 588 x 2
    ##    word2         n
    ##    <chr>     <int>
    ##  1 was        6291
    ##  2 is         3330
    ##  3 has        1417
    ##  4 tolerated   992
    ##  5 had         888
    ##  6 will        616
    ##  7 denies      552
    ##  8 and         377
    ##  9 states      363
    ## 10 does        334
    ## # ... with 578 more rows

``` r
mt_bi %>%
  filter(word2=="patient") %>%
  count(word1, sort = T)
```

    ## # A tibble: 269 x 2
    ##    word1         n
    ##    <chr>     <int>
    ##  1 the       20301
    ##  2 this        470
    ##  3 history     101
    ##  4 a            67
    ##  5 and          47
    ##  6 procedure    32
    ##  7 female       26
    ##  8 with         25
    ##  9 use          24
    ## 10 old          23
    ## # ... with 259 more rows

``` r
mt_bi %>%
  count(word1,word2, sort=T)
```

    ## # A tibble: 301,399 x 3
    ##    word1   word2       n
    ##    <chr>   <chr>   <int>
    ##  1 the     patient 20301
    ##  2 of      the     19050
    ##  3 in      the     12784
    ##  4 to      the     12372
    ##  5 was     then     6952
    ##  6 and     the      6346
    ##  7 patient was      6291
    ##  8 the     right    5509
    ##  9 on      the      5241
    ## 10 the     left     4858
    ## # ... with 301,389 more rows
…
Which words are most used in each of the specialties. you can use
`group_by()` and `top_n()` from `dplyr` to have the calculations be done
within each specialty. Remember to remove stopwords. How about the most
5 used words?

``` r
mt_samples %>%
  unnest_tokens(token, transcription) %>%
  anti_join(tidytext::stop_words, by=c("token"="word")) %>%
  group_by(medical_specialty) %>%
  count(token, sort=T) %>%
  top_n(5,n)
```

    ## # A tibble: 209 x 3
    ## # Groups:   medical_specialty [40]
    ##    medical_specialty          token         n
    ##    <chr>                      <chr>     <int>
    ##  1 Surgery                    patient    4855
    ##  2 Surgery                    left       3263
    ##  3 Surgery                    procedure  3243
    ##  4 Consult - History and Phy. patient    3046
    ##  5 Consult - History and Phy. history    2820
    ##  6 Surgery                    0          2094
    ##  7 Surgery                    1          2038
    ##  8 Orthopedic                 patient    1711
    ##  9 Cardiovascular / Pulmonary left       1550
    ## 10 Cardiovascular / Pulmonary patient    1516
    ## # ... with 199 more rows
…
  - Interesting ngrams
  - See if certain words are used more in some specialties then others

<!-- end list -->

``` r
mt_samples %>%
  unnest_ngrams(output=token, input=transcription, n=3) %>%
  group_by(medical_specialty) %>%
  count(token, sort=T) %>%
  top_n(1,n)
```

    ## # A tibble: 44 x 3
    ## # Groups:   medical_specialty [40]
    ##    medical_specialty          token               n
    ##    <chr>                      <chr>           <int>
    ##  1 Surgery                    the patient was  2139
    ##  2 Consult - History and Phy. the patient is    638
    ##  3 Orthopedic                 the patient was   572
    ##  4 Cardiovascular / Pulmonary the patient was   422
    ##  5 Urology                    the patient was   280
    ##  6 General Medicine           the patient is    275
    ##  7 Obstetrics / Gynecology    the patient was   245
    ##  8 Gastroenterology           the patient was   231
    ##  9 Discharge Summary          the patient was   196
    ## 10 Radiology                  there is no       188
    ## # ... with 34 more rows
…
